[
  {
    "id": 1,
    "question": "What does 'HTML' stand for?",
    "audio": "https://survey-voice-recording.s3.amazonaws.com/lesson-recording-1.mp3",
    "A": "HyperText Markup Language",
    "B": "HighText Machine Language",
    "C": "HyperTool Markup Language",
    "D": "HyperTech Main Language",
    "answer": "A",
    "difficulty": "easy",
    "captions": "HTML stands for HyperText Markup Language. It's the standard language for creating web pages, defining their structure and content using tags."
  },
  {
    "id": 2,
    "question": "Which device is used to process data in a computer?",
    "audio": "https://survey-voice-recording.s3.amazonaws.com/lesson-recording-2.mp3",
    "A": "Keyboard",
    "B": "Monitor",
    "C": "Printer",
    "D": "CPU",
    "answer": "D",
    "difficulty": "easy",
    "captions": "The CPU, or Central Processing Unit, is the brain of the computer where most calculations take place. It processes data input and runs programs."
  },
  {
    "id": 3,
    "question": "What is 'www' in a website browser?",
    "audio": "https://survey-voice-recording.s3.amazonaws.com/lesson-recording-3.mp3",
    "A": "World Wide Web",
    "B": "Web Wide World",
    "C": "Wide World Web",
    "D": "Web World Wide",
    "answer": "A",
    "difficulty": "easy",
    "captions": "WWW stands for World Wide Web. It's a system of interlinked hypertext documents accessed via the internet, forming a large part of the web's information."
  },
  {
    "id": 4,
    "question": "Which of these is a popular programming language?",
    "audio": "https://survey-voice-recording.s3.amazonaws.com/lesson-recording-4.mp3",
    "A": "Python",
    "B": "Anaconda",
    "C": "Cobra",
    "D": "Viper",
    "answer": "A",
    "difficulty": "easy",
    "captions": "Python is a popular programming language known for its simplicity and versatility. It's widely used in web development, data analysis, and more."
  },
  {
    "id": 5,
    "question": "What does 'Wi-Fi' stand for?",
    "audio": "https://survey-voice-recording.s3.amazonaws.com/lesson-recording-5.mp3",
    "A": "Wireless Fidelity",
    "B": "Wired Fidelity",
    "C": "Wireless Function",
    "D": "Wired Function",
    "answer": "A",
    "difficulty": "easy",
    "captions": "Wi-Fi stands for Wireless Fidelity. It's a technology that uses radio waves to provide wireless high-speed internet and network connections."
  },
  {
    "id": 6,
    "question": "Which of these is a search engine?",
    "audio": "https://survey-voice-recording.s3.amazonaws.com/lesson-recording-6.mp3",
    "A": "Google",
    "B": "Microsoft",
    "C": "Adobe",
    "D": "Oracle",
    "answer": "A",
    "difficulty": "easy",
    "captions": "Google is a search engine, a software system designed to carry out web searches. It provides a way to find information on the internet."
  },
  {
    "id": 7,
    "question": "What is the primary purpose of a web browser?",
    "audio": "https://survey-voice-recording.s3.amazonaws.com/lesson-recording-7.mp3",
    "A": "To display web pages",
    "B": "To write code",
    "C": "To connect to Wi-Fi",
    "D": "To play videos",
    "answer": "A",
    "difficulty": "easy",
    "captions": "A web browser's primary purpose is to display web pages. It fetches and shows content from the internet, like websites and videos."
  },
  {
    "id": 8,
    "question": "What does 'URL' stand for?",
    "audio": "https://survey-voice-recording.s3.amazonaws.com/lesson-recording-8.mp3",
    "A": "Uniform Resource Locator",
    "B": "Universal Resource Link",
    "C": "Unified Resource Link",
    "D": "Uniform Resource Link",
    "answer": "A",
    "difficulty": "easy",
    "captions": "URL stands for Uniform Resource Locator. It's a reference (an address) to a resource on the internet, like a webpage, indicating its location."
  },
  {
    "id": 9,
    "question": "Which of these is a social media platform?",
    "audio": "https://survey-voice-recording.s3.amazonaws.com/lesson-recording-9.mp3",
    "A": "Twitter",
    "B": "Windows",
    "C": "Excel",
    "D": "Photoshop",
    "answer": "A",
    "difficulty": "easy",
    "captions": "Twitter is a social media platform. It's an online service where users post and interact with messages known as 'tweets.'"
  },
  {
    "id": 10,
    "question": "What is 'RAM' used for in a computer?",
    "audio": "https://survey-voice-recording.s3.amazonaws.com/lesson-recording-10.mp3",
    "A": "Storing permanent data",
    "B": "Temporary storage and active tasks",
    "C": "Displaying graphics",
    "D": "Creating documents",
    "answer": "B",
    "difficulty": "easy",
    "captions": "RAM, or Random Access Memory, is used for temporary storage and managing active tasks in a computer, providing space for the system to read and write data quickly."
  },
  {
    "id": 11,
    "question": "In HTML, which tag is used to create a hyperlink?",
    "audio": "",
    "A": "<hyperlink>",
    "B": "<a>",
    "C": "<link>",
    "D": "<href>",
    "answer": "B",
    "difficulty": "medium"
  },
  {
    "id": 12,
    "question": "What property is used to change the background color of an element in CSS?",
    "audio": "",
    "A": "bgcolor",
    "B": "color",
    "C": "background-color",
    "D": "background",
    "answer": "C",
    "difficulty": "medium",
    "captions": ""
  },
  {
    "id": 13,
    "question": "Which of the following is a JavaScript framework?",
    "audio": "",
    "A": "Django",
    "B": "Angular",
    "C": "Laravel",
    "D": "Ruby on Rails",
    "answer": "B",
    "difficulty": "medium",
    "captions": ""
  },
  {
    "id": 14,
    "question": "What does CSS stand for?",
    "audio": "",
    "A": "Computing Style Sheet",
    "B": "Creative Style System",
    "C": "Cascading Style Sheets",
    "D": "Computer Styled Sections",
    "answer": "C",
    "difficulty": "medium",
    "captions": ""
  },
  {
    "id": 15,
    "question": "In JavaScript, what element is used to store multiple values in a single variable?",
    "audio": "",
    "A": "Strings",
    "B": "Variables",
    "C": "Functions",
    "D": "Arrays",
    "answer": "D",
    "difficulty": "medium",
    "captions": ""
  },
  {
    "id": 16,
    "question": "Which HTML attribute specifies an alternate text for an image, if the image cannot be displayed?",
    "audio": "",
    "A": "alt",
    "B": "title",
    "C": "src",
    "D": "href",
    "answer": "A",
    "difficulty": "medium",
    "captions": ""
  },
  {
    "id": 17,
    "question": "In CSS, how do you select an element with the id 'header'?",
    "audio": "",
    "A": ".header",
    "B": "#header",
    "C": "header",
    "D": "*header",
    "answer": "B",
    "difficulty": "medium",
    "captions": ""
  },
  {
    "id": 18,
    "question": "Which symbol is used in JavaScript to comment a single line?",
    "audio": "",
    "A": "//",
    "B": "/*",
    "C": "<!--",
    "D": "#",
    "answer": "A",
    "difficulty": "medium",
    "captions": ""
  },
  {
    "id": 19,
    "question": "What does the 'DOCTYPE' declaration do in HTML?",
    "audio": "",
    "A": "Links to a JavaScript file",
    "B": "Declares the character encoding",
    "C": "Specifies the HTML version",
    "D": "Links to a CSS file",
    "answer": "C",
    "difficulty": "medium",
    "captions": ""
  },
  {
    "id": 20,
    "question": "In JavaScript, which method is used to write 'Hello World' inside an HTML element with id 'demo'?",
    "audio": "",
    "A": "document.getElement('demo').innerHTML = 'Hello World';",
    "B": "document.getElementById('demo').innerHTML = 'Hello World';",
    "C": "document.writeIn('demo', 'Hello World');",
    "D": "inner.HTML('demo', 'Hello World');",
    "answer": "B",
    "difficulty": "medium",
    "captions": ""
  },
  {
    "id": 21,
    "question": "What is the purpose of a self-executing anonymous function in JavaScript?",
    "audio": "",
    "A": "To initiate a plugin",
    "B": "To create a private namespace",
    "C": "To declare variables",
    "D": "To enable strict mode",
    "answer": "B",
    "difficulty": "hard",
    "captions": "Self-executing anonymous functions in JavaScript, also known as Immediately Invoked Function Expressions (IIFE), are used to create a private namespace. This helps in avoiding global scope pollution and name clashes."
  },
  {
    "id": 22,
    "question": "Which HTTP method is idempotent, meaning it can be called many times without different outcomes?",
    "audio": "",
    "A": "POST",
    "B": "GET",
    "C": "DELETE",
    "D": "PATCH",
    "answer": "C",
    "difficulty": "hard",
    "captions": "The DELETE HTTP method is idempotent. This means making multiple identical DELETE requests will have the same effect as making a single request, unlike methods like POST where repeated requests can have different outcomes."
  },
  {
    "id": 23,
    "question": "In React, what is the significance of keys in lists?",
    "audio": "",
    "A": "To enhance performance by enabling list item reordering",
    "B": "To identify which items have changed, been added, or removed",
    "C": "To set a unique style for each list item",
    "D": "To prevent XSS attacks",
    "answer": "B",
    "difficulty": "hard",
    "captions": "In React, keys in lists are crucial for tracking items for updates efficiently. They help React identify which items have changed, been added, or removed, leading to performance optimizations during re-rendering."
  },
  {
    "id": 24,
    "question": "What is the main feature of a Progressive Web App (PWA)?",
    "audio": "",
    "A": "High performance on mobile devices",
    "B": "Use of Adobe Flash for interactive content",
    "C": "Ability to function with poor internet connection",
    "D": "Automatic redirection to the App Store",
    "answer": "C",
    "difficulty": "hard",
    "captions": "A key feature of Progressive Web Apps (PWAs) is their ability to function effectively with poor internet connections. They use service workers to provide offline support and a native-like experience on mobile devices."
  },
  {
    "id": 25,
    "question": "Which design pattern is commonly used in React.js for sharing functionality between components?",
    "audio": "",
    "A": "Observer",
    "B": "Singleton",
    "C": "Decorator",
    "D": "Higher-Order Components",
    "answer": "D",
    "difficulty": "hard",
    "captions": "Higher-Order Components (HOC) in React.js are a common design pattern used for reusing component logic. An HOC is a function that takes a component and returns a new component, thereby enabling sharing functionality across components."
  },
  {
    "id": 26,
    "question": "What does CORS stand for and why is it important in web applications?",
    "audio": "",
    "A": "Cross-Origin Resource Sharing, for allowing resources to be requested from another domain",
    "B": "Cross-Operational Rendering System, for rendering UI across different browsers",
    "C": "Common Object Request Standard, for standardizing object requests in programming",
    "D": "Compact Object Rendering Syntax, for efficient coding practices",
    "answer": "A",
    "difficulty": "hard",
    "captions": "CORS, or Cross-Origin Resource Sharing, is vital in web applications for allowing resources to be requested from different domains. It's a security feature that helps in preventing unwanted cross-domain requests."
  },
  {
    "id": 27,
    "question": "In web development, what is 'memoization'?",
    "audio": "",
    "A": "A method to keep track of component updates in React",
    "B": "An optimization technique to speed up computer programs by storing the results of expensive function calls",
    "C": "A way of writing concise CSS classes",
    "D": "The process of converting HTML collections into arrays",
    "answer": "B",
    "difficulty": "hard",
    "captions": "Memoization in web development is an optimization technique that involves storing the results of expensive function calls and returning the cached result when the same inputs occur again. This significantly speeds up applications by avoiding unnecessary calculations."
  },
  {
    "id": 28,
    "question": "What is the purpose of a Web Worker in JavaScript?",
    "audio": "",
    "A": "To enable multi-threading in the background",
    "B": "To automatically refresh web pages",
    "C": "To check the syntax of JavaScript code",
    "D": "To compress JavaScript files",
    "answer": "A",
    "difficulty": "hard",
    "captions": "Web Workers in JavaScript are used for multi-threading in the background, allowing for time-consuming scripts to run without interrupting the user interface. This leads to improved performance and user experience in web applications."
  },
  {
    "id": 29,
    "question": "What is the main difference between 'localStorage' and 'sessionStorage' in web browsers?",
    "audio": "",
    "A": "'localStorage' data persists until explicitly deleted, while 'sessionStorage' data is cleared when the session ends",
    "B": "'localStorage' is more secure than 'sessionStorage'",
    "C": "'localStorage' has a larger storage limit compared to 'sessionStorage'",
    "D": "'localStorage' is synchronous, while 'sessionStorage' is asynchronous",
    "answer": "A",
    "difficulty": "hard",
    "captions": "'localStorage' and 'sessionStorage' both provide storage solutions in web browsers, but with a key difference. Data in 'localStorage' persists until explicitly cleared, while 'sessionStorage' data is cleared when the browser session ends."
  },
  {
    "id": 30,
    "question": "In a Node.js application, what is the purpose of the 'process' global object?",
    "audio": "",
    "A": "To manage child processes spawned by the application",
    "B": "To provide information about, and control over, the current Node.js process",
    "C": "To handle HTTP requests and responses",
    "D": "To configure the application's package dependencies",
    "answer": "B",
    "difficulty": "hard",
    "captions": "In Node.js, the 'process' global object is used to interact with and get information about the current"
  }
]
